{
   "templateGroup": {
      "uuid": "meter-data-decision-group",
      "name": "Meter Data Decision Group",
      "description": "This section covers all templates of meter.",
      "ruleTemplates": [
         {
            "uuid": "voltage-ab-lowest",
            "name": "Voltage-AB-Lowest",
            "description": "This template can be used to measure and send alerts if Voltage-AB goes below of its set threshold.",
            "type": "template",
            "instanceCount": "many",
            "script": "var meter_name = myFunction1('${userInputFormeter_name}');\n\n/**\n* Does some magic on given variable\n* @returns Processed input\n* @param input User given value\n*/\nfunction myFunction1(input) {\n\treturn input;\n}\n\n\n\n\nvar emails = myFunction2('${userInputForemails}');\n\n/**\n* Does some magic on given variable\n* @returns Processed input\n* @param input User given value\n*/\nfunction myFunction2(input) {\n\treturn input;\n}\n\n\n\n\nvar threshold = myFunction3('${userInputForthreshold}');\n\n/**\n* Does some magic on given variable\n* @returns Processed input\n* @param input User given value\n*/\nfunction myFunction3(input) {\n\treturn input;\n}\n\n\n\n\nvar lowest = myFunction4('${userInputForlowest}');\n\n/**\n* Does some magic on given variable\n* @returns Processed input\n* @param input User given value\n*/\nfunction myFunction4(input) {\n\treturn input;\n}\n\n\n\n\nvar meter_id = myFunction5('${userInputFormeter_id}');\n\n/**\n* Does some magic on given variable\n* @returns Processed input\n* @param input User given value\n*/\nfunction myFunction5(input) {\n\treturn input;\n}\n\n\nvar mins = myFunction1('${userInputFormins}');\n\n/**\n* Does some magic on given variable\n* @returns Processed input\n* @param input User given value\n*/\nfunction myFunction1(input) {\n   if(input)\n\treturn input;\n}\n\n",
            "templates": [
               {
                  "type": "siddhiApp",
                  "content": "@App:name('voltage-ab-lowest') \n@App:description(\"Voltage-AB last n minute data aggregation based on meter ID.\")\n\n\n@source(type='rabbitmq' , uri='amqp://ampcome:Ampcome1@localhost', routing.key='data', exchange.name='meter_data_fanout_ex', exchange.type='fanout', queue.name='', @map(type='json'))\ndefine stream InputStream(voltage_ab_v double, voltage_bc_v double, voltage_ca_v double, current_a_a double, current_b_a double, current_c_a double, current_avg double, frequency_hz double, meter_id string, active_power_total_kw double, apparent_power_total_kva double, power_factor_total double, device_time long);\n\n\ndefine stream holdData(voltage_ab_v double, meter_id string, date_time string);\n\n\n@sink(type='email',\n      username ='SMTP_Injection',\n      address ='skycomm@ampcome.com',\n      password='1f343d01592931b734e0f65937ff23b7d5074706', \n      subject='Alert From Energy Application for meter: ${meter_name}',\n      to='${emails}',\n      port = '587',\n      host = 'smtp.sparkpostmail.com',\n      ssl.enable = 'false',\n      auth = 'true',\n      content.type=\"text/html\",\n      mail.smtp.starttls.enable = 'true',\n      mail.smtp.starttls.required = 'true',\n      @map(type='text', @payload(\"<html><head><title></title><link href='https://svc.webspellchecker.net/spellcheck31/lf/scayt3/ckscayt/css/wsc.css' rel='stylesheet' type='text/css'/><link href='https://svc.webspellchecker.net/spellcheck31/lf/scayt3/ckscayt/css/wsc.css' rel='stylesheet' type='text/css'/><link href='https://svc.webspellchecker.net/spellcheck31/lf/scayt3/ckscayt/css/wsc.css' rel='stylesheet' type='text/css'/><link href='https://svc.webspellchecker.net/spellcheck31/lf/scayt3/ckscayt/css/wsc.css' rel='stylesheet' type='text/css'/></head><body aria-readonly='false' style='cursor: auto;'>Dear User,<br/><br/>The following alert has been noted, for Medreich Unit 8, RR No.: NGHT13<table align='left' border='1' cellpadding='1' cellspacing='1' style='width:500px'><tbody><tr><td>Meter</td><td>${meter_name} &nbsp;</td></tr><tr><td>Time</td><td>{{date_time}}</td></tr><tr><td>Voltage_AB(Average of past ${mins} minutes)</td><td>{{voltage_ab_v}}V ({{percent_of_threshold}}%)</td></tr><tr><td>Ideal Voltage_AB</td><td>${threshold}V</td></tr><tr><td>Alert setting</td><td>${lowest}%</td></tr></tbody></table><br/><br/><br/><br/><br/><br/><br/><br/><strong>Powered by SKYCOMM, Smart Plant analytics.</strong></body></html>\")))\ndefine stream OutputStream(voltage_ab_v double, meter_id string, date_time string, percent_of_threshold double);\n\n@info(name='first-query')\nfrom InputStream[meter_id=='${meter_id}']#window.timeBatch(${mins} min)\nselect avg(voltage_ab_v) as voltage_ab_v, meter_id, time:dateFormat(device_time, 'HH:mm:ss.SSS yyyy-MM-dd') as date_time\ngroup by meter_id\ninsert into holdData;\n\n@info(name='second-query')\nfrom holdData[(voltage_ab_v<(${threshold}-(${threshold}d*${lowest}/100)))]\nselect voltage_ab_v, meter_id, date_time, (voltage_ab_v*100)/${threshold}d as percent_of_threshold\ninsert into OutputStream;\n"
               }
            ],
            "properties": {
               "userInputFormeter_name": {
                  "fieldName": "Meter-Name",
                  "description": "Name of Meter(eg: LT-EB, VCB, DG)",
                  "defaultValue": "DG"
               },
               "userInputForemails": {
                  "fieldName": "Emails",
                  "description": "Emails with comma seprated values.",
                  "defaultValue": "prashant@ampcome.com"
               },
               "userInputForthreshold": {
                  "fieldName": "Ideal-Value",
                  "description": "The value which will be base of calculation.",
                  "defaultValue": "415"
               },
               "userInputForlowest": {
                  "fieldName": "Lowest-Percent-of-Ideal-Value",
                  "description": "The percent value of ideal value which will be subtracted from ideal value.",
                  "defaultValue": "5"
               },
               "userInputFormeter_id": {
                  "fieldName": "Meter-ID",
                  "description": "Meter ID which will be used for calculations.",
                  "defaultValue": "s2"
               },
               "userInputFormins": {
                  "fieldName": "Minutes for Aggregation",
                  "description": "Minutes like 1,2,3...",
                  "defaultValue": "5"
               }
            }
         },
         {
            "uuid": "voltage-bc-lowest",
            "name": "Voltage-BC-Lowest",
            "description": "This template can be used to measure and send alerts if Voltage-BC goes below of its set threshold.",
            "type": "template",
            "instanceCount": "many",
            "script": "var meter_name = myFunction1('${userInputFormeter_name}');\n\n/**\n* Does some magic on given variable\n* @returns Processed input\n* @param input User given value\n*/\nfunction myFunction1(input) {\n\treturn input;\n}\n\n\n\n\nvar emails = myFunction2('${userInputForemails}');\n\n/**\n* Does some magic on given variable\n* @returns Processed input\n* @param input User given value\n*/\nfunction myFunction2(input) {\n\treturn input;\n}\n\n\n\n\nvar threshold = myFunction3('${userInputForthreshold}');\n\n/**\n* Does some magic on given variable\n* @returns Processed input\n* @param input User given value\n*/\nfunction myFunction3(input) {\n\treturn input;\n}\n\n\n\n\nvar lowest = myFunction4('${userInputForlowest}');\n\n/**\n* Does some magic on given variable\n* @returns Processed input\n* @param input User given value\n*/\nfunction myFunction4(input) {\n\treturn input;\n}\n\n\n\n\nvar meter_id = myFunction5('${userInputFormeter_id}');\n\n/**\n* Does some magic on given variable\n* @returns Processed input\n* @param input User given value\n*/\nfunction myFunction5(input) {\n\treturn input;\n}\n\nvar mins = myFunction1('${userInputFormins}');\n\n/**\n* Does some magic on given variable\n* @returns Processed input\n* @param input User given value\n*/\nfunction myFunction1(input) {\n   if(input)\n\treturn input;\n}\n\n\n\n",
            "templates": [
               {
                  "type": "siddhiApp",
                  "content": "@App:name('voltage-bc-lowest') \n@App:description(\"Voltage-BC last 5 minute data aggregation based on meter ID.\")\n\n\n@source(type='rabbitmq' , uri='amqp://ampcome:Ampcome1@localhost', routing.key='data', exchange.name='meter_data_fanout_ex', exchange.type='fanout', queue.name='', @map(type='json'))\ndefine stream InputStream(voltage_ab_v double, voltage_bc_v double, voltage_ca_v double, current_a_a double, current_b_a double, current_c_a double, current_avg double, frequency_hz double, meter_id string, active_power_total_kw double, apparent_power_total_kva double, power_factor_total double, device_time long);\n\n\ndefine stream holdData(voltage_bc_v double, meter_id string, date_time string);\n\n\n@sink(type='email',\n      username ='SMTP_Injection',\n      address ='skycomm@ampcome.com',\n      password='1f343d01592931b734e0f65937ff23b7d5074706', \n      subject='Alert From Energy Application for meter: ${meter_name}',\n      to='${emails}',\n      port = '587',\n      host = 'smtp.sparkpostmail.com',\n      ssl.enable = 'false',\n      auth = 'true',\n      content.type=\"text/html\",\n      mail.smtp.starttls.enable = 'true',\n      mail.smtp.starttls.required = 'true',\n      @map(type='text', @payload(\"<html><head><title></title><link href='https://svc.webspellchecker.net/spellcheck31/lf/scayt3/ckscayt/css/wsc.css' rel='stylesheet' type='text/css'/><link href='https://svc.webspellchecker.net/spellcheck31/lf/scayt3/ckscayt/css/wsc.css' rel='stylesheet' type='text/css'/><link href='https://svc.webspellchecker.net/spellcheck31/lf/scayt3/ckscayt/css/wsc.css' rel='stylesheet' type='text/css'/><link href='https://svc.webspellchecker.net/spellcheck31/lf/scayt3/ckscayt/css/wsc.css' rel='stylesheet' type='text/css'/></head><body aria-readonly='false' style='cursor: auto;'>Dear User,<br/><br/>The following alert has been noted, for Medreich Unit 8, RR No.: NGHT13<table align='left' border='1' cellpadding='1' cellspacing='1' style='width:500px'><tbody><tr><td>Meter</td><td>${meter_name} &nbsp;</td></tr><tr><td>Time</td><td>{{date_time}}</td></tr><tr><td>Voltage_BC((Average of past ${mins} minutes))</td><td>{{voltage_bc_v}}V ({{percent_of_threshold}}%)</td></tr><tr><td>Ideal Voltage_BC</td><td>${threshold}V</td></tr><tr><td>Alert setting</td><td>${lowest}%</td></tr></tbody></table><br/><br/><br/><br/><br/><br/><br/><br/><strong>Powered by SKYCOMM, Smart Plant analytics.</strong></body></html>\")))\ndefine stream OutputStream(voltage_bc_v double, meter_id string, date_time string, percent_of_threshold double);\n\n@info(name='first-query')\nfrom InputStream[meter_id=='${meter_id}']#window.timeBatch(${mins} min)\nselect avg(voltage_bc_v) as voltage_bc_v, meter_id, time:dateFormat(device_time, 'HH:mm:ss.SSS yyyy-MM-dd') as date_time\ngroup by meter_id\ninsert into holdData;\n\n@info(name='second-query')\nfrom holdData[(voltage_bc_v<(${threshold}-(${threshold}d*${lowest}/100)))]\nselect voltage_bc_v, meter_id, date_time, (voltage_bc_v*100)/${threshold}d as percent_of_threshold\ninsert into OutputStream;\n"
               }
            ],
            "properties": {
               "userInputFormeter_name": {
                  "fieldName": "Meter-Name",
                  "description": "Name of Meter(eg: LT-EB, VCB, DG)",
                  "defaultValue": "DG"
               },
               "userInputForemails": {
                  "fieldName": "Emails",
                  "description": "Emails with comma seprated values.",
                  "defaultValue": "prashant@ampcome.com"
               },
               "userInputForthreshold": {
                  "fieldName": "Ideal-Value",
                  "description": "The value which will be base of calculation.",
                  "defaultValue": "415"
               },
               "userInputForlowest": {
                  "fieldName": "Lowest-Percent-of-Ideal-Value",
                  "description": "The percent value of ideal value which will be subtracted from ideal value.",
                  "defaultValue": "5"
               },
               "userInputFormeter_id": {
                  "fieldName": "Meter-ID",
                  "description": "Meter ID which will be used for calculations.",
                  "defaultValue": "s2"
               },
               "userInputFormins": {
                  "fieldName": "Minutes for Aggregation",
                  "description": "Minutes like 1,2,3...",
                  "defaultValue": "5"
               }
            }
         },
         {
            "uuid": "voltage-ca-lowest",
            "name": "Voltage-CA-Lowest",
            "description": "This template can be used to measure and send alerts if Voltage-CA goes below of its set threshold.",
            "type": "template",
            "instanceCount": "many",
            "script": "var meter_name = myFunction1('${userInputFormeter_name}');\n\n/**\n* Does some magic on given variable\n* @returns Processed input\n* @param input User given value\n*/\nfunction myFunction1(input) {\n\treturn input;\n}\n\n\n\n\nvar emails = myFunction2('${userInputForemails}');\n\n/**\n* Does some magic on given variable\n* @returns Processed input\n* @param input User given value\n*/\nfunction myFunction2(input) {\n\treturn input;\n}\n\n\n\n\nvar threshold = myFunction3('${userInputForthreshold}');\n\n/**\n* Does some magic on given variable\n* @returns Processed input\n* @param input User given value\n*/\nfunction myFunction3(input) {\n\treturn input;\n}\n\n\n\n\nvar lowest = myFunction4('${userInputForlowest}');\n\n/**\n* Does some magic on given variable\n* @returns Processed input\n* @param input User given value\n*/\nfunction myFunction4(input) {\n\treturn input;\n}\n\n\n\n\nvar meter_id = myFunction5('${userInputFormeter_id}');\n\n/**\n* Does some magic on given variable\n* @returns Processed input\n* @param input User given value\n*/\nfunction myFunction5(input) {\n\treturn input;\n}\n\n\n\n\nvar mins = myFunction1('${userInputFormins}');\n\n/**\n* Does some magic on given variable\n* @returns Processed input\n* @param input User given value\n*/\nfunction myFunction1(input) {\n   if(input)\n\treturn input;\n}\n\n\n",
            "templates": [
               {
                  "type": "siddhiApp",
                  "content": "@App:name('voltage-ca-lowest') \n@App:description(\"Voltage-CA last n minutes data aggregation based on meter ID.\")\n\n\n@source(type='rabbitmq' , uri='amqp://ampcome:Ampcome1@localhost', routing.key='data', exchange.name='meter_data_fanout_ex', exchange.type='fanout', queue.name='', @map(type='json'))\ndefine stream InputStream(voltage_ab_v double, voltage_bc_v double, voltage_ca_v double, current_a_a double, current_b_a double, current_c_a double, current_avg double, frequency_hz double, meter_id string, active_power_total_kw double, apparent_power_total_kva double, power_factor_total double, device_time long);\n\n\ndefine stream holdData(voltage_ca_v double, meter_id string, date_time string);\n\n\n@sink(type='email',\n      username ='SMTP_Injection',\n      address ='skycomm@ampcome.com',\n      password='1f343d01592931b734e0f65937ff23b7d5074706', \n      subject='Alert From Energy Application for meter: ${meter_name}',\n      to='${emails}',\n      port = '587',\n      host = 'smtp.sparkpostmail.com',\n      ssl.enable = 'false',\n      auth = 'true',\n      content.type=\"text/html\",\n      mail.smtp.starttls.enable = 'true',\n      mail.smtp.starttls.required = 'true',\n      @map(type='text', @payload(\"<html><head><title></title><link href='https://svc.webspellchecker.net/spellcheck31/lf/scayt3/ckscayt/css/wsc.css' rel='stylesheet' type='text/css'/><link href='https://svc.webspellchecker.net/spellcheck31/lf/scayt3/ckscayt/css/wsc.css' rel='stylesheet' type='text/css'/><link href='https://svc.webspellchecker.net/spellcheck31/lf/scayt3/ckscayt/css/wsc.css' rel='stylesheet' type='text/css'/><link href='https://svc.webspellchecker.net/spellcheck31/lf/scayt3/ckscayt/css/wsc.css' rel='stylesheet' type='text/css'/></head><body aria-readonly='false' style='cursor: auto;'>Dear User,<br/><br/>The following alert has been noted, for Medreich Unit 8, RR No.: NGHT13<table align='left' border='1' cellpadding='1' cellspacing='1' style='width:500px'><tbody><tr><td>Meter</td><td>${meter_name} &nbsp;</td></tr><tr><td>Time</td><td>{{date_time}}</td></tr><tr><td>Voltage_CA ((Average of past ${mins} minutes))</td><td>{{voltage_ca_v}}V ({{percent_of_threshold}}%)</td></tr><tr><td>Ideal Voltage_CA</td><td>${threshold}V</td></tr><tr><td>Alert setting</td><td>${lowest}%</td></tr></tbody></table><br/><br/><br/><br/><br/><br/><br/><br/><strong>Powered by SKYCOMM, Smart Plant analytics.</strong></body></html>\")))\ndefine stream OutputStream(voltage_ca_v double, meter_id string, date_time string, percent_of_threshold double);\n\n@info(name='first-query')\nfrom InputStream[meter_id=='${meter_id}']#window.timeBatch(${mins} min)\nselect avg(voltage_ca_v) as voltage_ca_v, meter_id, time:dateFormat(device_time, 'HH:mm:ss.SSS yyyy-MM-dd') as date_time\ngroup by meter_id\ninsert into holdData;\n\n@info(name='second-query')\nfrom holdData[(voltage_ca_v<(${threshold}-(${threshold}d*${lowest}/100)))]\nselect voltage_ca_v, meter_id, date_time, (voltage_ca_v*100)/${threshold}d as percent_of_threshold\ninsert into OutputStream;\n"
               }
            ],
            "properties": {
               "userInputFormeter_name": {
                  "fieldName": "Meter-Name",
                  "description": "Name of Meter(eg: LT-EB, VCB, DG)",
                  "defaultValue": "DG"
               },
               "userInputForemails": {
                  "fieldName": "Emails",
                  "description": "Emails with comma seprated values.",
                  "defaultValue": "prashant@ampcome.com"
               },
               "userInputForthreshold": {
                  "fieldName": "Ideal-Value",
                  "description": "The value which will be base of calculation.",
                  "defaultValue": "415"
               },
               "userInputForlowest": {
                  "fieldName": "Lowest-Percent-of-Ideal-Value",
                  "description": "The percent value of ideal value which will be subtracted from ideal value.",
                  "defaultValue": "5"
               },
               "userInputFormeter_id": {
                  "fieldName": "Meter-ID",
                  "description": "Meter ID which will be used for calculations.",
                  "defaultValue": "s2"
               },
               "userInputFormins": {
                  "fieldName": "Minutes for Aggregation",
                  "description": "Minutes like 1,2,3...",
                  "defaultValue": "5"
               }
            }
         },
         {
            "uuid": "voltage-ab-highest",
            "name": "Voltage-AB-Highest",
            "description": "This template can be used to measure and send alerts if Voltage-AB crosses its set threshold.",
            "type": "template",
            "instanceCount": "many",
            "script": "var meter_name = myFunction1('${userInputFormeter_name}');\n\n/**\n* Does some magic on given variable\n* @returns Processed input\n* @param input User given value\n*/\nfunction myFunction1(input) {\n   if(input)\n\treturn input;\n}\n\n\nvar highest = myFunction1('${userInputForhighest}');\n\n/**\n* Does some magic on given variable\n* @returns Processed input\n* @param input User given value\n*/\nfunction myFunction1(input) {\n   if(input)\n\treturn input;\n}\n\n\n\n\nvar threshold = myFunction2('${userInputForthreshold}');\n\n/**\n* Does some magic on given variable\n* @returns Processed input\n* @param input User given value\n*/\nfunction myFunction2(input) {\n   if(input)\n\treturn input;\n}\n\n\n\n\nvar meter_id = myFunction3('${userInputFormeter_id}');\n\n/**\n* Does some magic on given variable\n* @returns Processed input\n* @param input User given value\n*/\nfunction myFunction3(input) {\n   if(input)\n\treturn input;\n}\n\n\n\n\nvar emails = myFunction1('${userInputForemails}');\n\n/**\n* Does some magic on given variable\n* @returns Processed input\n* @param input User given value\n*/\nfunction myFunction1(input) {\n   if(input)\n\treturn input;\n}\n\nvar mins = myFunction1('${userInputFormins}');\n\n/**\n* Does some magic on given variable\n* @returns Processed input\n* @param input User given value\n*/\nfunction myFunction1(input) {\n   if(input)\n\treturn input;\n}\n\n\n",
            "templates": [
               {
                  "type": "siddhiApp",
                  "content": "@App:name('voltage-ab-highest') \n@App:description(\"Voltage-AB last n minutes data aggregation based on meter ID.\")\n\n\n@source(type='rabbitmq' , uri='amqp://ampcome:Ampcome1@localhost', routing.key='data', exchange.name='meter_data_fanout_ex', exchange.type='fanout', queue.name='', @map(type='json'))\ndefine stream InputStream(voltage_ab_v double, voltage_bc_v double, voltage_ca_v double, current_a_a double, current_b_a double, current_c_a double, current_avg double, frequency_hz double, meter_id string, active_power_total_kw double, apparent_power_total_kva double, power_factor_total double, device_time long);\n\n\ndefine stream holdData(voltage_ab_v double, meter_id string, date_time string);\n\n\n@sink(type='email',\n      username ='SMTP_Injection',\n      address ='skycomm@ampcome.com',\n      password='1f343d01592931b734e0f65937ff23b7d5074706', \n      subject='Alert From Energy Application for meter: ${meter_name}',\n      to='${emails}',\n      port = '587',\n      host = 'smtp.sparkpostmail.com',\n      ssl.enable = 'false',\n      auth = 'true',\n      content.type=\"text/html\",\n      mail.smtp.starttls.enable = 'true',\n      mail.smtp.starttls.required = 'true',\n      @map(type='text', @payload(\"<html><head><title></title><link href='https://svc.webspellchecker.net/spellcheck31/lf/scayt3/ckscayt/css/wsc.css' rel='stylesheet' type='text/css'/><link href='https://svc.webspellchecker.net/spellcheck31/lf/scayt3/ckscayt/css/wsc.css' rel='stylesheet' type='text/css'/><link href='https://svc.webspellchecker.net/spellcheck31/lf/scayt3/ckscayt/css/wsc.css' rel='stylesheet' type='text/css'/><link href='https://svc.webspellchecker.net/spellcheck31/lf/scayt3/ckscayt/css/wsc.css' rel='stylesheet' type='text/css'/></head><body aria-readonly='false' style='cursor: auto;'>Dear User,<br/><br/>The following alert has been noted, for Medreich Unit 8, RR No.: NGHT13<table align='left' border='1' cellpadding='1' cellspacing='1' style='width:500px'><tbody><tr><td>Meter</td><td>${meter_name} &nbsp;</td></tr><tr><td>Time</td><td>{{date_time}}</td></tr><tr><td>Voltage_AB (Average of past ${mins} minutes)</td><td>{{voltage_ab_v}}V ({{percent_of_threshold}}%)</td></tr><tr><td>Ideal Voltage_AB</td><td>${threshold}V</td></tr><tr><td>Alert setting</td><td>${highest}%</td></tr></tbody></table><br/><br/><br/><br/><br/><br/><br/><br/><strong>Powered by SKYCOMM, Smart Plant analytics.</strong></body></html>\")))\ndefine stream OutputStream(voltage_ab_v double, meter_id string, date_time string, percent_of_threshold double);\n\n@info(name='first-query')\nfrom InputStream[meter_id=='${meter_id}']#window.timeBatch(${mins} min)\nselect avg(voltage_ab_v) as voltage_ab_v, meter_id, time:dateFormat(device_time, 'HH:mm:ss.SSS yyyy-MM-dd') as date_time\ngroup by meter_id\ninsert into holdData;\n\n@info(name='second-query')\nfrom holdData[(voltage_ab_v>(${threshold}+(${threshold}d*${highest}/100)))]\nselect voltage_ab_v, meter_id, date_time, (voltage_ab_v*100)/${threshold}d as percent_of_threshold\ninsert into OutputStream;\n"
               }
            ],
            "properties": {
               "userInputForhighest": {
                  "fieldName": "Highest-Value",
                  "description": "The highest value of threshold in percentage. Not needed to add % at end of value.",
                  "defaultValue": "5"
               },
               "userInputForthreshold": {
                  "fieldName": "Threshold-Value",
                  "description": "The threshold value which will be base of all calculations.",
                  "defaultValue": "415"
               },
               "userInputFormeter_id": {
                  "fieldName": "Meter-ID",
                  "description": "The meter id which will be used to filter data.",
                  "defaultValue": "s2"
               },
               "userInputForemails": {
                  "fieldName": "Email IDs",
                  "description": "Email IDs with comma seprated values",
                  "defaultValue": "prashant@ampcome.com,vishal@ampcome.com"
               },
               "userInputFormins": {
                  "fieldName": "Minutes for Aggregation",
                  "description": "Minutes like 1,2,3...",
                  "defaultValue": "5"
               },
               "userInputFormeter_name": {
                  "fieldName": "Meter-Name",
                  "description": "Name of Meter(eg: LT-EB, VCB, DG)",
                  "defaultValue": "DG"
               }
            }
         },
         {
            "uuid": "voltage-bc-highest",
            "name": "Voltage-BC-Highest",
            "description": "This template can be used to measure and send alerts if Voltage-BC crosses its set threshold.",
            "type": "template",
            "instanceCount": "many",
            "script": "var meter_name = myFunction1('${userInputFormeter_name}');\n\n/**\n* Does some magic on given variable\n* @returns Processed input\n* @param input User given value\n*/\nfunction myFunction1(input) {\n   if(input)\n\treturn input;\n}\n\n\n\n\nvar highest = myFunction1('${userInputForhighest}');\n\n/**\n* Does some magic on given variable\n* @returns Processed input\n* @param input User given value\n*/\nfunction myFunction1(input) {\n   if(input)\n\treturn input;\n}\n\n\n\n\nvar threshold = myFunction2('${userInputForthreshold}');\n\n/**\n* Does some magic on given variable\n* @returns Processed input\n* @param input User given value\n*/\nfunction myFunction2(input) {\n   if(input)\n\treturn input;\n}\n\n\n\n\nvar meter_id = myFunction3('${userInputFormeter_id}');\n\n/**\n* Does some magic on given variable\n* @returns Processed input\n* @param input User given value\n*/\nfunction myFunction3(input) {\n   if(input)\n\treturn input;\n}\n\n\n\n\nvar emails = myFunction1('${userInputForemails}');\n\n/**\n* Does some magic on given variable\n* @returns Processed input\n* @param input User given value\n*/\nfunction myFunction1(input) {\n   if(input)\n\treturn input;\n}\n\n\n\nvar mins = myFunction1('${userInputFormins}');\n\n/**\n* Does some magic on given variable\n* @returns Processed input\n* @param input User given value\n*/\nfunction myFunction1(input) {\n   if(input)\n\treturn input;\n}\n",
            "templates": [
               {
                  "type": "siddhiApp",
                  "content": "@App:name('voltage-bc-highest') \n@App:description(\"Voltage-BC last n minutes data aggregation based on meter ID.\")\n\n\n@source(type='rabbitmq' , uri='amqp://ampcome:Ampcome1@localhost', routing.key='data', exchange.name='meter_data_fanout_ex', exchange.type='fanout', queue.name='', @map(type='json'))\ndefine stream InputStream(voltage_ab_v double, voltage_bc_v double, voltage_ca_v double, current_a_a double, current_b_a double, current_c_a double, current_avg double, frequency_hz double, meter_id string, active_power_total_kw double, apparent_power_total_kva double, power_factor_total double, device_time long);\n\n\ndefine stream holdData(voltage_bc_v double, meter_id string, date_time string);\n\n\n@sink(type='email',\n      username ='SMTP_Injection',\n      address ='skycomm@ampcome.com',\n      password='1f343d01592931b734e0f65937ff23b7d5074706', \n      subject='Alert From Energy Application for meter: ${meter_name}',\n      to='${emails}',\n      port = '587',\n      host = 'smtp.sparkpostmail.com',\n      ssl.enable = 'false',\n      auth = 'true',\n      content.type=\"text/html\",\n      mail.smtp.starttls.enable = 'true',\n      mail.smtp.starttls.required = 'true',\n      @map(type='text', @payload(\"<html><head><title></title><link href='https://svc.webspellchecker.net/spellcheck31/lf/scayt3/ckscayt/css/wsc.css' rel='stylesheet' type='text/css'/><link href='https://svc.webspellchecker.net/spellcheck31/lf/scayt3/ckscayt/css/wsc.css' rel='stylesheet' type='text/css'/><link href='https://svc.webspellchecker.net/spellcheck31/lf/scayt3/ckscayt/css/wsc.css' rel='stylesheet' type='text/css'/><link href='https://svc.webspellchecker.net/spellcheck31/lf/scayt3/ckscayt/css/wsc.css' rel='stylesheet' type='text/css'/></head><body aria-readonly='false' style='cursor: auto;'>Dear User,<br/><br/>The following alert has been noted, for Medreich Unit 8, RR No.: NGHT13<table align='left' border='1' cellpadding='1' cellspacing='1' style='width:500px'><tbody><tr><td>Meter</td><td>${meter_name} &nbsp;</td></tr><tr><td>Time</td><td>{{date_time}}</td></tr><tr><td>Voltage_BC (Average of past ${mins} minutes)</td><td>{{voltage_bc_v}}V ({{percent_of_threshold}}%)</td></tr><tr><td>Ideal Voltage_BC</td><td>${threshold}V</td></tr><tr><td>Alert setting</td><td>${highest}%</td></tr></tbody></table><br/><br/><br/><br/><br/><br/><br/><br/><strong>Powered by SKYCOMM, Smart Plant analytics.</strong></body></html>\")))\ndefine stream OutputStream(voltage_bc_v double, meter_id string, date_time string, percent_of_threshold double);\n\n@info(name='first-query')\nfrom InputStream[meter_id=='${meter_id}']#window.timeBatch(${mins} min)\nselect avg(voltage_bc_v) as voltage_bc_v, meter_id, time:dateFormat(device_time, 'HH:mm:ss.SSS yyyy-MM-dd') as date_time\ngroup by meter_id\ninsert into holdData;\n\n@info(name='second-query')\nfrom holdData[(voltage_bc_v>(${threshold}+(${threshold}d*${highest}/100)))]\nselect voltage_bc_v, meter_id, date_time, (voltage_bc_v*100)/${threshold}d as percent_of_threshold\ninsert into OutputStream;\n"
               }
            ],
            "properties": {
               "userInputForhighest": {
                  "fieldName": "Highest-Value",
                  "description": "The highest value of threshold in percentage. Not needed to add % at end of value.",
                  "defaultValue": "5"
               },
               "userInputForthreshold": {
                  "fieldName": "Threshold-Value",
                  "description": "The threshold value which will be base of all calculations.",
                  "defaultValue": "415"
               },
               "userInputFormeter_id": {
                  "fieldName": "Meter-ID",
                  "description": "The meter id which will be used to filter data.",
                  "defaultValue": "s2"
               },
               "userInputForemails": {
                  "fieldName": "Email IDs",
                  "description": "Email IDs with comma seprated values",
                  "defaultValue": "prashant@ampcome.com,vishal@ampcome.com"
               },
               "userInputFormins": {
                  "fieldName": "Minutes for Aggregation",
                  "description": "Minutes like 1,2,3...",
                  "defaultValue": "5"
               },
               "userInputFormeter_name": {
                  "fieldName": "Meter-Name",
                  "description": "Name of Meter(eg: LT-EB, VCB, DG)",
                  "defaultValue": "DG"
               }
            }
         },
         {
            "uuid": "voltage-ca-highest",
            "name": "Voltage-CA-Highest",
            "description": "This template can be used to measure and send alerts if Voltage-CA crosses its set threshold.",
            "type": "template",
            "instanceCount": "many",
            "script": "var meter_name = myFunction1('${userInputFormeter_name}');\n\n/**\n* Does some magic on given variable\n* @returns Processed input\n* @param input User given value\n*/\nfunction myFunction1(input) {\n   if(input)\n\treturn input;\n}\n\n\n\n\nvar highest = myFunction1('${userInputForhighest}');\n\n/**\n* Does some magic on given variable\n* @returns Processed input\n* @param input User given value\n*/\nfunction myFunction1(input) {\n   if(input)\n\treturn input;\n}\n\n\n\n\nvar threshold = myFunction2('${userInputForthreshold}');\n\n/**\n* Does some magic on given variable\n* @returns Processed input\n* @param input User given value\n*/\nfunction myFunction2(input) {\n   if(input)\n\treturn input;\n}\n\n\n\n\nvar meter_id = myFunction3('${userInputFormeter_id}');\n\n/**\n* Does some magic on given variable\n* @returns Processed input\n* @param input User given value\n*/\nfunction myFunction3(input) {\n   if(input)\n\treturn input;\n}\n\n\n\n\nvar emails = myFunction1('${userInputForemails}');\n\n/**\n* Does some magic on given variable\n* @returns Processed input\n* @param input User given value\n*/\nfunction myFunction1(input) {\n   if(input)\n\treturn input;\n}\n\n\nvar mins = myFunction1('${userInputFormins}');\n\n/**\n* Does some magic on given variable\n* @returns Processed input\n* @param input User given value\n*/\nfunction myFunction1(input) {\n   if(input)\n\treturn input;\n}\n\n",
            "templates": [
               {
                  "type": "siddhiApp",
                  "content": "@App:name('voltage-ca-highest') \n@App:description(\"Voltage-CA last n minutes data aggregation based on meter ID.\")\n\n\n@source(type='rabbitmq' , uri='amqp://ampcome:Ampcome1@localhost', routing.key='data', exchange.name='meter_data_fanout_ex', exchange.type='fanout', queue.name='', @map(type='json'))\ndefine stream InputStream(voltage_ab_v double, voltage_bc_v double, voltage_ca_v double, current_a_a double, current_b_a double, current_c_a double, current_avg double, frequency_hz double, meter_id string, active_power_total_kw double, apparent_power_total_kva double, power_factor_total double, device_time long);\n\n\ndefine stream holdData(voltage_ca_v double, meter_id string, date_time string);\n\n\n@sink(type='email',\n      username ='SMTP_Injection',\n      address ='skycomm@ampcome.com',\n      password='1f343d01592931b734e0f65937ff23b7d5074706', \n      subject='Alert From Energy Application for meter: ${meter_name}',\n      to='${emails}',\n      port = '587',\n      host = 'smtp.sparkpostmail.com',\n      ssl.enable = 'false',\n      auth = 'true',\n      content.type=\"text/html\",\n      mail.smtp.starttls.enable = 'true',\n      mail.smtp.starttls.required = 'true',\n      @map(type='text', @payload(\"<html><head><title></title><link href='https://svc.webspellchecker.net/spellcheck31/lf/scayt3/ckscayt/css/wsc.css' rel='stylesheet' type='text/css'/><link href='https://svc.webspellchecker.net/spellcheck31/lf/scayt3/ckscayt/css/wsc.css' rel='stylesheet' type='text/css'/><link href='https://svc.webspellchecker.net/spellcheck31/lf/scayt3/ckscayt/css/wsc.css' rel='stylesheet' type='text/css'/><link href='https://svc.webspellchecker.net/spellcheck31/lf/scayt3/ckscayt/css/wsc.css' rel='stylesheet' type='text/css'/></head><body aria-readonly='false' style='cursor: auto;'>Dear User,<br/><br/>The following alert has been noted, for Medreich Unit 8, RR No.: NGHT13<table align='left' border='1' cellpadding='1' cellspacing='1' style='width:500px'><tbody><tr><td>Meter</td><td>${meter_name} &nbsp;</td></tr><tr><td>Time</td><td>{{date_time}}</td></tr><tr><td>Voltage_CA (Average of past ${mins} minutes)</td><td>{{voltage_ca_v}}V ({{percent_of_threshold}}%)</td></tr><tr><td>Ideal Voltage_CA</td><td>${threshold}V</td></tr><tr><td>Alert setting</td><td>${highest}%</td></tr></tbody></table><br/><br/><br/><br/><br/><br/><br/><br/><strong>Powered by SKYCOMM, Smart Plant analytics.</strong></body></html>\")))\ndefine stream OutputStream(voltage_ca_v double, meter_id string, date_time string, percent_of_threshold double);\n\n@info(name='first-query')\nfrom InputStream[meter_id=='${meter_id}']#window.timeBatch(${mins} min)\nselect avg(voltage_ca_v) as voltage_ca_v, meter_id, time:dateFormat(device_time, 'HH:mm:ss.SSS yyyy-MM-dd') as date_time\ngroup by meter_id\ninsert into holdData;\n\n@info(name='second-query')\nfrom holdData[(voltage_ca_v>(${threshold}+(${threshold}d*${highest}/100)))]\nselect voltage_ca_v, meter_id, date_time, (voltage_ca_v*100)/${threshold}d as percent_of_threshold\ninsert into OutputStream;\n"
               }
            ],
            "properties": {
               "userInputForhighest": {
                  "fieldName": "Highest-Value",
                  "description": "The highest value of threshold in percentage. Not needed to add % at end of value.",
                  "defaultValue": "5"
               },
               "userInputForthreshold": {
                  "fieldName": "Threshold-Value",
                  "description": "The threshold value which will be base of all calculations.",
                  "defaultValue": "415"
               },
               "userInputFormeter_id": {
                  "fieldName": "Meter-ID",
                  "description": "The meter id which will be used to filter data.",
                  "defaultValue": "s2"
               },
               "userInputForemails": {
                  "fieldName": "Email IDs",
                  "description": "Email IDs with comma seprated values",
                  "defaultValue": "prashant@ampcome.com,vishal@ampcome.com"
               },
               "userInputFormins": {
                  "fieldName": "Minutes for Aggregation",
                  "description": "Minutes like 1,2,3...",
                  "defaultValue": "5"
               },
               "userInputFormeter_name": {
                  "fieldName": "Meter-Name",
                  "description": "Name of Meter(eg: LT-EB, VCB, DG)",
                  "defaultValue": "DG"
               }
            }
         },
         {
            "uuid": "frequency-highest",
            "name": "Frequency-Highest",
            "description": "This template can be used to measure and send alerts if Frequency crosses its set threshold.",
            "type": "template",
            "instanceCount": "many",
            "script": "var meter_name = myFunction1('${userInputFormeter_name}');\n\n/**\n* Does some magic on given variable\n* @returns Processed input\n* @param input User given value\n*/\nfunction myFunction1(input) {\n   if(input)\n\treturn input;\n}\n\n\n\n\nvar highest = myFunction1('${userInputForhighest}');\n\n/**\n* Does some magic on given variable\n* @returns Processed input\n* @param input User given value\n*/\nfunction myFunction1(input) {\n   if(input)\n\treturn input;\n}\n\n\n\n\nvar threshold = myFunction2('${userInputForthreshold}');\n\n/**\n* Does some magic on given variable\n* @returns Processed input\n* @param input User given value\n*/\nfunction myFunction2(input) {\n   if(input)\n\treturn input;\n}\n\n\n\n\nvar meter_id = myFunction3('${userInputFormeter_id}');\n\n/**\n* Does some magic on given variable\n* @returns Processed input\n* @param input User given value\n*/\nfunction myFunction3(input) {\n   if(input)\n\treturn input;\n}\n\n\n\n\nvar emails = myFunction1('${userInputForemails}');\n\n/**\n* Does some magic on given variable\n* @returns Processed input\n* @param input User given value\n*/\nfunction myFunction1(input) {\n   if(input)\n\treturn input;\n}\n\n\nvar mins = myFunction1('${userInputFormins}');\n\n/**\n* Does some magic on given variable\n* @returns Processed input\n* @param input User given value\n*/\nfunction myFunction1(input) {\n   if(input)\n\treturn input;\n}\n\n\n",
            "templates": [
               {
                  "type": "siddhiApp",
                  "content": "@App:name('frequency-highest') \n@App:description(\"Frequency-Highest last n minutes data aggregation based on meter ID.\")\n\n\n@source(type='rabbitmq' , uri='amqp://ampcome:Ampcome1@localhost', routing.key='data', exchange.name='meter_data_fanout_ex', exchange.type='fanout', queue.name='', @map(type='json'))\ndefine stream InputStream(voltage_ab_v double, voltage_bc_v double, voltage_ca_v double, current_a_a double, current_b_a double, current_c_a double, current_avg double, frequency_hz double, meter_id string, active_power_total_kw double, apparent_power_total_kva double, power_factor_total double, device_time long);\n\n\ndefine stream holdData(frequency_hz double, meter_id string, date_time string);\n\n\n@sink(type='email',\n      username ='SMTP_Injection',\n      address ='skycomm@ampcome.com',\n      password='1f343d01592931b734e0f65937ff23b7d5074706', \n      subject='Alert From Energy Application for meter: ${meter_name}',\n      to='${emails}',\n      port = '587',\n      host = 'smtp.sparkpostmail.com',\n      ssl.enable = 'false',\n      auth = 'true',\n      content.type=\"text/html\",\n      mail.smtp.starttls.enable = 'true',\n      mail.smtp.starttls.required = 'true',\n      @map(type='text', @payload(\"<html><head><title></title><link href='https://svc.webspellchecker.net/spellcheck31/lf/scayt3/ckscayt/css/wsc.css' rel='stylesheet' type='text/css'/><link href='https://svc.webspellchecker.net/spellcheck31/lf/scayt3/ckscayt/css/wsc.css' rel='stylesheet' type='text/css'/><link href='https://svc.webspellchecker.net/spellcheck31/lf/scayt3/ckscayt/css/wsc.css' rel='stylesheet' type='text/css'/><link href='https://svc.webspellchecker.net/spellcheck31/lf/scayt3/ckscayt/css/wsc.css' rel='stylesheet' type='text/css'/></head><body aria-readonly='false' style='cursor: auto;'>Dear User,<br/><br/>The following alert has been noted, for Medreich Unit 8, RR No.: NGHT13<table align='left' border='1' cellpadding='1' cellspacing='1' style='width:500px'><tbody><tr><td>Meter</td><td>${meter_name} &nbsp;</td></tr><tr><td>Time</td><td>{{date_time}}</td></tr><tr><td>Frequency (Average of past ${mins} minutes)</td><td>{{frequency_hz}}Hz ({{percent_of_threshold}}%)</td></tr><tr><td>Ideal Frequency</td><td>${threshold}Hz</td></tr><tr><td>Alert setting</td><td>${highest}%</td></tr></tbody></table><br/><br/><br/><br/><br/><br/><br/><br/><strong>Powered by SKYCOMM, Smart Plant analytics.</strong></body></html>\")))\ndefine stream OutputStream(frequency_hz double, meter_id string, date_time string, percent_of_threshold double);\n\n@info(name='first-query')\nfrom InputStream[meter_id=='${meter_id}']#window.timeBatch(${mins} min)\nselect avg(frequency_hz) as frequency_hz, meter_id, time:dateFormat(device_time, 'HH:mm:ss.SSS yyyy-MM-dd') as date_time\ngroup by meter_id\ninsert into holdData;\n\n@info(name='second-query')\nfrom holdData[(frequency_hz>(${threshold}+(${threshold}d*${highest}/100)))]\nselect frequency_hz, meter_id, date_time, (frequency_hz*100)/${threshold}d as percent_of_threshold\ninsert into OutputStream;\n"
               }
            ],
            "properties": {
               "userInputForhighest": {
                  "fieldName": "Highest-Value",
                  "description": "The highest value of threshold in percentage. Not needed to add % at end of value.",
                  "defaultValue": "5"
               },
               "userInputForthreshold": {
                  "fieldName": "Threshold-Value",
                  "description": "The threshold value which will be base of all calculations.",
                  "defaultValue": "50"
               },
               "userInputFormeter_id": {
                  "fieldName": "Meter-ID",
                  "description": "The meter id which will be used to filter data.",
                  "defaultValue": "s2"
               },
               "userInputForemails": {
                  "fieldName": "Email IDs",
                  "description": "Email IDs with comma seprated values",
                  "defaultValue": "prashant@ampcome.com,vishal@ampcome.com"
               },
               "userInputFormins": {
                  "fieldName": "Minutes for Aggregation",
                  "description": "Minutes like 1,2,3...",
                  "defaultValue": "5"
               },
               "userInputFormeter_name": {
                  "fieldName": "Meter-Name",
                  "description": "Name of Meter(eg: LT-EB, VCB, DG)",
                  "defaultValue": "DG"
               }
            }
         },
         {
            "uuid": "frequency-lowest",
            "name": "Frequency-Lowest",
            "description": "This template can be used to measure and send alerts if Frequency goes below of its set threshold.",
            "type": "template",
            "instanceCount": "many",
            "script": "var meter_name = myFunction1('${userInputFormeter_name}');\n\n/**\n* Does some magic on given variable\n* @returns Processed input\n* @param input User given value\n*/\nfunction myFunction1(input) {\n   if(input)\n\treturn input;\n}\n\n\n\nvar lowest = myFunction1('${userInputForlowest}');\n\n/**\n* Does some magic on given variable\n* @returns Processed input\n* @param input User given value\n*/\nfunction myFunction1(input) {\n   if(input)\n\treturn input;\n}\n\n\n\n\nvar threshold = myFunction2('${userInputForthreshold}');\n\n/**\n* Does some magic on given variable\n* @returns Processed input\n* @param input User given value\n*/\nfunction myFunction2(input) {\n   if(input)\n\treturn input;\n}\n\n\n\n\nvar meter_id = myFunction3('${userInputFormeter_id}');\n\n/**\n* Does some magic on given variable\n* @returns Processed input\n* @param input User given value\n*/\nfunction myFunction3(input) {\n   if(input)\n\treturn input;\n}\n\n\n\n\nvar emails = myFunction1('${userInputForemails}');\n\n/**\n* Does some magic on given variable\n* @returns Processed input\n* @param input User given value\n*/\nfunction myFunction1(input) {\n   if(input)\n\treturn input;\n}\n\n\n\nvar mins = myFunction1('${userInputFormins}');\n\n/**\n* Does some magic on given variable\n* @returns Processed input\n* @param input User given value\n*/\nfunction myFunction1(input) {\n   if(input)\n\treturn input;\n}\n",
            "templates": [
               {
                  "type": "siddhiApp",
                  "content": "@App:name('frequency-lowest') \n@App:description(\"Frequency-Lowest last n minutes data aggregation based on meter ID.\")\n\n\n@source(type='rabbitmq' , uri='amqp://ampcome:Ampcome1@localhost', routing.key='data', exchange.name='meter_data_fanout_ex', exchange.type='fanout', queue.name='', @map(type='json'))\ndefine stream InputStream(voltage_ab_v double, voltage_bc_v double, voltage_ca_v double, current_a_a double, current_b_a double, current_c_a double, current_avg double, frequency_hz double, meter_id string, active_power_total_kw double, apparent_power_total_kva double, power_factor_total double, device_time long);\n\n\ndefine stream holdData(frequency_hz double, meter_id string, date_time string);\n\n\n@sink(type='email',\n      username ='SMTP_Injection',\n      address ='skycomm@ampcome.com',\n      password='1f343d01592931b734e0f65937ff23b7d5074706', \n      subject='Alert From Energy Application for meter: ${meter_name}',\n      to='${emails}',\n      port = '587',\n      host = 'smtp.sparkpostmail.com',\n      ssl.enable = 'false',\n      auth = 'true',\n      content.type=\"text/html\",\n      mail.smtp.starttls.enable = 'true',\n      mail.smtp.starttls.required = 'true',\n      @map(type='text', @payload(\"<html><head><title></title><link href='https://svc.webspellchecker.net/spellcheck31/lf/scayt3/ckscayt/css/wsc.css' rel='stylesheet' type='text/css'/><link href='https://svc.webspellchecker.net/spellcheck31/lf/scayt3/ckscayt/css/wsc.css' rel='stylesheet' type='text/css'/><link href='https://svc.webspellchecker.net/spellcheck31/lf/scayt3/ckscayt/css/wsc.css' rel='stylesheet' type='text/css'/><link href='https://svc.webspellchecker.net/spellcheck31/lf/scayt3/ckscayt/css/wsc.css' rel='stylesheet' type='text/css'/></head><body aria-readonly='false' style='cursor: auto;'>Dear User,<br/><br/>The following alert has been noted, for Medreich Unit 8, RR No.: NGHT13<table align='left' border='1' cellpadding='1' cellspacing='1' style='width:500px'><tbody><tr><td>Meter</td><td>${meter_name} &nbsp;</td></tr><tr><td>Time</td><td>{{date_time}}</td></tr><tr><td>Frequency (Average of past ${mins} minutes)</td><td>{{frequency_hz}}Hz ({{percent_of_threshold}}%)</td></tr><tr><td>Ideal Frequency</td><td>${threshold}Hz</td></tr><tr><td>Alert setting</td><td>${lowest}%</td></tr></tbody></table><br/><br/><br/><br/><br/><br/><br/><br/><strong>Powered by SKYCOMM, Smart Plant analytics.</strong></body></html>\")))\ndefine stream OutputStream(frequency_hz double, meter_id string, date_time string, percent_of_threshold double);\n\n@info(name='first-query')\nfrom InputStream[meter_id=='${meter_id}']#window.timeBatch(${mins} min)\nselect avg(frequency_hz) as frequency_hz, meter_id, time:dateFormat(device_time, 'HH:mm:ss.SSS yyyy-MM-dd') as date_time\ngroup by meter_id\ninsert into holdData;\n\n@info(name='second-query')\nfrom holdData[(frequency_hz<(${threshold}-(${threshold}d*${lowest}/100)))]\nselect frequency_hz, meter_id, date_time, (frequency_hz*100)/${threshold}d as percent_of_threshold\ninsert into OutputStream;\n"
               }
            ],
            "properties": {
               "userInputForlowest": {
                  "fieldName": "Lowest-Value",
                  "description": "The lowest value of threshold in percentage. Not needed to add % at end of value.",
                  "defaultValue": "5"
               },
               "userInputForthreshold": {
                  "fieldName": "Threshold-Value",
                  "description": "The threshold value which will be base of all calculations.",
                  "defaultValue": "50"
               },
               "userInputFormeter_id": {
                  "fieldName": "Meter-ID",
                  "description": "The meter id which will be used to filter data.",
                  "defaultValue": "s2"
               },
               "userInputForemails": {
                  "fieldName": "Email IDs",
                  "description": "Email IDs with comma seprated values",
                  "defaultValue": "prashant@ampcome.com,vishal@ampcome.com"
               },
               "userInputFormins": {
                  "fieldName": "Minutes for Aggregation",
                  "description": "Minutes like 1,2,3...",
                  "defaultValue": "5"
               },
               "userInputFormeter_name": {
                  "fieldName": "Meter-Name",
                  "description": "Name of Meter(eg: LT-EB, VCB, DG)",
                  "defaultValue": "DG"
               }
            }
         },
         {
            "uuid": "max-current",
            "name": "Max-Current",
            "description": "This template can be used to measure and send alerts if Current Average higher of its set threshold.",
            "type": "template",
            "instanceCount": "many",
            "script": "var meter_name = myFunction1('${userInputFormeter_name}');\n\n/**\n* Does some magic on given variable\n* @returns Processed input\n* @param input User given value\n*/\nfunction myFunction1(input) {\n   if(input)\n\treturn input;\n}\n\n\nvar highest = myFunction1('${userInputForhighest}');\n\n/**\n* Does some magic on given variable\n* @returns Processed input\n* @param input User given value\n*/\nfunction myFunction1(input) {\n   if(input)\n\treturn input;\n}\n\n\n\n\nvar threshold = myFunction2('${userInputForthreshold}');\n\n/**\n* Does some magic on given variable\n* @returns Processed input\n* @param input User given value\n*/\nfunction myFunction2(input) {\n   if(input)\n\treturn input;\n}\n\n\n\n\nvar meter_id = myFunction3('${userInputFormeter_id}');\n\n/**\n* Does some magic on given variable\n* @returns Processed input\n* @param input User given value\n*/\nfunction myFunction3(input) {\n   if(input)\n\treturn input;\n}\n\n\n\n\nvar emails = myFunction1('${userInputForemails}');\n\n/**\n* Does some magic on given variable\n* @returns Processed input\n* @param input User given value\n*/\nfunction myFunction1(input) {\n   if(input)\n\treturn input;\n}\n\n\nvar mins = myFunction1('${userInputFormins}');\n\n/**\n* Does some magic on given variable\n* @returns Processed input\n* @param input User given value\n*/\nfunction myFunction1(input) {\n   if(input)\n\treturn input;\n}\n\n",
            "templates": [
               {
                  "type": "siddhiApp",
                  "content": "@App:name('max-current') \n@App:description(\"Max-Current last n minutes data aggregation based on meter ID.\")\n\n\n@source(type='rabbitmq' , uri='amqp://ampcome:Ampcome1@localhost', routing.key='data', exchange.name='meter_data_fanout_ex', exchange.type='fanout', queue.name='', @map(type='json'))\ndefine stream InputStream(voltage_ab_v double, voltage_bc_v double, voltage_ca_v double, current_a_a double, current_b_a double, current_c_a double, current_avg double, frequency_hz double, meter_id string, active_power_total_kw double, apparent_power_total_kva double, power_factor_total double, device_time long);\n\n\ndefine stream holdData(current_avg double, meter_id string, date_time string);\n\n\n@sink(type='email',\n      username ='SMTP_Injection',\n      address ='skycomm@ampcome.com',\n      password='1f343d01592931b734e0f65937ff23b7d5074706', \n      subject='Alert From Energy Application for meter: ${meter_name}',\n      to='${emails}',\n      port = '587',\n      host = 'smtp.sparkpostmail.com',\n      ssl.enable = 'false',\n      auth = 'true',\n      content.type=\"text/html\",\n      mail.smtp.starttls.enable = 'true',\n      mail.smtp.starttls.required = 'true',\n      @map(type='text', @payload(\"<html><head><title></title><link href='https://svc.webspellchecker.net/spellcheck31/lf/scayt3/ckscayt/css/wsc.css' rel='stylesheet' type='text/css'/><link href='https://svc.webspellchecker.net/spellcheck31/lf/scayt3/ckscayt/css/wsc.css' rel='stylesheet' type='text/css'/><link href='https://svc.webspellchecker.net/spellcheck31/lf/scayt3/ckscayt/css/wsc.css' rel='stylesheet' type='text/css'/><link href='https://svc.webspellchecker.net/spellcheck31/lf/scayt3/ckscayt/css/wsc.css' rel='stylesheet' type='text/css'/></head><body aria-readonly='false' style='cursor: auto;'>Dear User,<br/><br/>The following alert has been noted, for Medreich Unit 8, RR No.: NGHT13<table align='left' border='1' cellpadding='1' cellspacing='1' style='width:500px'><tbody><tr><td>Meter</td><td>${meter_name} &nbsp;</td></tr><tr><td>Time</td><td>{{date_time}}</td></tr><tr><td>Current (Average of past ${mins} minutes)</td><td>{{current_avg}}A ({{percent_of_threshold}}%)</td></tr><tr><td>Ideal Current</td><td>${threshold}A</td></tr><tr><td>Alert setting</td><td>${highest}%</td></tr></tbody></table><br/><br/><br/><br/><br/><br/><br/><br/><strong>Powered by SKYCOMM, Smart Plant analytics.</strong></body></html>\")))\ndefine stream OutputStream(current_avg double, meter_id string, date_time string, percent_of_threshold double);\n\n@info(name='first-query')\nfrom InputStream[meter_id=='${meter_id}']#window.timeBatch(${mins} min)\nselect avg(current_avg) as current_avg, meter_id, time:dateFormat(device_time, 'HH:mm:ss.SSS yyyy-MM-dd') as date_time\ngroup by meter_id\ninsert into holdData;\n\n@info(name='second-query')\nfrom holdData[(current_avg>(${threshold}d*${highest}/100))]\nselect current_avg, meter_id, date_time, (current_avg*100)/${threshold}d as percent_of_threshold\ninsert into OutputStream;\n"
               }
            ],
            "properties": {
               "userInputForhighest": {
                  "fieldName": "Highest-Value",
                  "description": "The lowest value of threshold in percentage. Not needed to add % at end of value.",
                  "defaultValue": "80"
               },
               "userInputForthreshold": {
                  "fieldName": "Threshold-Value",
                  "description": "The threshold value which will be base of all calculations.",
                  "defaultValue": "2434"
               },
               "userInputFormeter_id": {
                  "fieldName": "Meter-ID",
                  "description": "The meter id which will be used to filter data.",
                  "defaultValue": "s2"
               },
               "userInputForemails": {
                  "fieldName": "Email IDs",
                  "description": "Email IDs with comma seprated values",
                  "defaultValue": "prashant@ampcome.com,vishal@ampcome.com"
               },
               "userInputFormins": {
                  "fieldName": "Minutes for Aggregation",
                  "description": "Minutes like 1,2,3...",
                  "defaultValue": "5"
               },
               "userInputFormeter_name": {
                  "fieldName": "Meter-Name",
                  "description": "Name of Meter(eg: LT-EB, VCB, DG)",
                  "defaultValue": "DG"
               }
            }
         },
         {
            "uuid": "kw-avg",
            "name": "KW-Average",
            "description": "This template can be used to measure and send alerts if kw goes higher of its set threshold.",
            "type": "template",
            "instanceCount": "many",
            "script": "var lowest = myFunction1('${userInputForlowest}');\n\n/**\n* Does some magic on given variable\n* @returns Processed input\n* @param input User given value\n*/\nfunction myFunction1(input) {\n   if(input)\n\treturn input;\n}\n\n\n\n\nvar threshold = myFunction2('${userInputForthreshold}');\n\n/**\n* Does some magic on given variable\n* @returns Processed input\n* @param input User given value\n*/\nfunction myFunction2(input) {\n   if(input)\n\treturn input;\n}\n\n\n\n\nvar meter = myFunction3('${userInputFormeter}');\n\n/**\n* Does some magic on given variable\n* @returns Processed input\n* @param input User given value\n*/\nfunction myFunction3(input) {\n   if(input)\n\treturn input;\n}\n\n\n\n\nvar emails = myFunction1('${userInputForemails}');\n\n/**\n* Does some magic on given variable\n* @returns Processed input\n* @param input User given value\n*/\nfunction myFunction1(input) {\n   if(input)\n\treturn input;\n}\n\n\n\n\n",
            "templates": [
               {
                  "type": "siddhiApp",
                  "content": "@App:name('kw-avg') \n@App:description(\"Description of the plan\")\n\n\n@source(type='rabbitmq' , uri='amqp://ampcome:Ampcome1@localhost', routing.key='data', exchange.name='meter_data_fanout_ex', exchange.type='fanout', queue.name='', @map(type='json'))\ndefine stream InputStream(voltage_ab_v double, voltage_bc_v double, voltage_ca_v double, current_a_a double, current_b_a double, current_c_a double, current_avg double, frequency_hz double, meter_id string, active_power_total_kw double, apparent_power_total_kva double, power_factor_total double, device_time long);\n\n@sink(type='email',\n      username ='SMTP_Injection',\n      address ='skycom@ampcome.com',\n      password='1f343d01592931b734e0f65937ff23b7d5074706', \n      subject='Alert From Energy Application for meter: {{meter_id}}',\n      to='${emails}',\n      port = '587',\n      host = 'smtp.sparkpostmail.com',\n      ssl.enable = 'false',\n      auth = 'true',\n      mail.smtp.starttls.enable = 'true',\n      mail.smtp.starttls.required = 'true',\n      @map(type='text', @payload(\"Dear User, The Active_Power_Total has gone above of [${lowest}% of ${threshold}kW] on {{date_time}}. The Active_Power_Total is {{active_power_total_kw}}kW. Please note that, the DG meter is indicated as 's1', LT-EB is 's2' and VCB(HT-EB) is s3.\")))\ndefine stream OutputStream(active_power_total_kw double, meter_id string, date_time string);\n\n@info(name='HelloWorldQuery')\nfrom InputStream[meter_id=='${meter}' and (active_power_total_kw>(${threshold}d*${lowest}/100))]\nselect active_power_total_kw, meter_id, time:dateFormat(device_time, 'yyyy-MM-dd HH:mm:ss.SSS') as date_time\ninsert into OutputStream;"
               }
            ],
            "properties": {
               "userInputForlowest": {
                  "fieldName": "Lowest-Value",
                  "description": "The lowest value of threshold in percentage. Not needed to add % at end of value.",
                  "defaultValue": "80"
               },
               "userInputForthreshold": {
                  "fieldName": "Threshold-Value",
                  "description": "The threshold value which will be base of all calculations.",
                  "defaultValue": "2434"
               },
               "userInputFormeter": {
                  "fieldName": "Meter-ID",
                  "description": "The meter id which will be used to filter data.",
                  "defaultValue": "s2"
               },
               "userInputForemails": {
                  "fieldName": "Email IDs",
                  "description": "Email IDs with comma seprated values",
                  "defaultValue": "prashant@ampcome.com,vishal@ampcome.com"
               }
            }
         },
         {
            "uuid": "current-a",
            "name": "Current-A",
            "description": "This template can be used to measure and send alerts if Current-A is not in threshold.",
            "type": "template",
            "instanceCount": "many",
            "script": "var lowest = myFunction1('${userInputForlowest}');\n\n/**\n* Does some magic on given variable\n* @returns Processed input\n* @param input User given value\n*/\nfunction myFunction1(input) {\n   if(input)\n\treturn input;\n}\n\n\n\n\nvar highest = myFunction2('${userInputForhighest}');\n\n/**\n* Does some magic on given variable\n* @returns Processed input\n* @param input User given value\n*/\nfunction myFunction2(input) {\n   if(input)\n\treturn input;\n}\n\n\n\n\nvar meter = myFunction3('${userInputFormeter}');\n\n/**\n* Does some magic on given variable\n* @returns Processed input\n* @param input User given value\n*/\nfunction myFunction3(input) {\n   if(input)\n\treturn input;\n}\n\n\n\n\nvar emails = myFunction1('${userInputForemails}');\n\n/**\n* Does some magic on given variable\n* @returns Processed input\n* @param input User given value\n*/\nfunction myFunction1(input) {\n   if(input)\n\treturn input;\n}\n\n\n\n\n",
            "templates": [
               {
                  "type": "siddhiApp",
                  "content": "@App:name('current-a') \n@App:description(\"Description of the plan\")\n\n\n@source(type='rabbitmq' , uri='amqp://ampcome:Ampcome1@localhost', routing.key='data', exchange.name='meter_data_fanout_ex', exchange.type='fanout', queue.name='', @map(type='json'))\ndefine stream InputStream(voltage_ab_v double, voltage_bc_v double, voltage_ca_v double, current_a_a double, current_b_a double, current_c_a double, current_avg double, frequency_hz double, meter_id string, active_power_total_kw double, apparent_power_total_kva double, power_factor_total double, device_time long);\n\n@sink(type='email',\n      username ='SMTP_Injection',\n      address ='skycom@ampcome.com',\n      password='1f343d01592931b734e0f65937ff23b7d5074706', \n      subject='Alert From Energy Application for meter: {{meter_id}}',\n      to='${emails}',\n      port = '587',\n      host = 'smtp.sparkpostmail.com',\n      ssl.enable = 'false',\n      auth = 'true',\n      mail.smtp.starttls.enable = 'true',\n      mail.smtp.starttls.required = 'true',\n      @map(type='text', @payload(\"Dear User, The Current_A was not in between of set threshold of [${lowest} and ${highest}] on {{date_time}}. Current_A is {{current_a_a}}. Please note that, the DG meter is indicated as 's1', LT-EB is 's2' and VCB(HT-EB) is s3.\")))\ndefine stream OutputStream(current_a_a double, meter_id string, date_time string);\n\n@info(name='HelloWorldQuery')\nfrom InputStream[meter_id=='${meter}' and (current_a_a < ${lowest}d or current_a_a > ${highest}d)]\nselect current_a_a, meter_id, time:dateFormat(device_time, 'yyyy-MM-dd HH:mm:ss.SSS') as date_time\ninsert into OutputStream;"
               }
            ],
            "properties": {
               "userInputForlowest": {
                  "fieldName": "Lowest-Value",
                  "description": "Lowest threshold value.",
                  "defaultValue": "0"
               },
               "userInputForhighest": {
                  "fieldName": "Highest-Value",
                  "description": "Highest threshold value.",
                  "defaultValue": "2434"
               },
               "userInputFormeter": {
                  "fieldName": "Meter-ID",
                  "description": "The meter id which will be used to filter data.",
                  "defaultValue": "s2"
               },
               "userInputForemails": {
                  "fieldName": "Email IDs",
                  "description": "Email IDs with comma seprated values",
                  "defaultValue": "prashant@ampcome.com,vishal@ampcome.com"
               }
            }
         },
         {
            "uuid": "current-b",
            "name": "Current-B",
            "description": "This template can be used to measure and send alerts if Current-B is not in threshold.",
            "type": "template",
            "instanceCount": "many",
            "script": "var lowest = myFunction1('${userInputForlowest}');\n\n/**\n* Does some magic on given variable\n* @returns Processed input\n* @param input User given value\n*/\nfunction myFunction1(input) {\n   if(input)\n\treturn input;\n}\n\n\n\n\nvar highest = myFunction2('${userInputForhighest}');\n\n/**\n* Does some magic on given variable\n* @returns Processed input\n* @param input User given value\n*/\nfunction myFunction2(input) {\n   if(input)\n\treturn input;\n}\n\n\n\n\nvar meter = myFunction3('${userInputFormeter}');\n\n/**\n* Does some magic on given variable\n* @returns Processed input\n* @param input User given value\n*/\nfunction myFunction3(input) {\n   if(input)\n\treturn input;\n}\n\n\n\n\nvar emails = myFunction1('${userInputForemails}');\n\n/**\n* Does some magic on given variable\n* @returns Processed input\n* @param input User given value\n*/\nfunction myFunction1(input) {\n   if(input)\n\treturn input;\n}\n\n\n\n\n",
            "templates": [
               {
                  "type": "siddhiApp",
                  "content": "@App:name('current-b') \n@App:description(\"Description of the plan\")\n\n\n@source(type='rabbitmq' , uri='amqp://ampcome:Ampcome1@localhost', routing.key='data', exchange.name='meter_data_fanout_ex', exchange.type='fanout', queue.name='', @map(type='json'))\ndefine stream InputStream(voltage_ab_v double, voltage_bc_v double, voltage_ca_v double, current_a_a double, current_b_a double, current_c_a double, current_avg double, frequency_hz double, meter_id string, active_power_total_kw double, apparent_power_total_kva double, power_factor_total double, device_time long);\n\n@sink(type='email',\n      username ='SMTP_Injection',\n      address ='skycom@ampcome.com',\n      password='1f343d01592931b734e0f65937ff23b7d5074706', \n      subject='Alert From Energy Application for meter: {{meter_id}}',\n      to='${emails}',\n      port = '587',\n      host = 'smtp.sparkpostmail.com',\n      ssl.enable = 'false',\n      auth = 'true',\n      mail.smtp.starttls.enable = 'true',\n      mail.smtp.starttls.required = 'true',\n      @map(type='text', @payload(\"Dear User, The Current_B was not in between of set threshold of [${lowest} and ${highest}] on {{date_time}}. Current_B is {{current_b_a}}. Please note that, the DG meter is indicated as 's1', LT-EB is 's2' and VCB(HT-EB) is s3.\")))\ndefine stream OutputStream(current_b_a double, meter_id string, date_time string);\n\n@info(name='HelloWorldQuery')\nfrom InputStream[meter_id=='${meter}' and (current_b_a < ${lowest}d or current_b_a > ${highest}d)]\nselect current_b_a, meter_id, time:dateFormat(device_time, 'yyyy-MM-dd HH:mm:ss.SSS') as date_time\ninsert into OutputStream;"
               }
            ],
            "properties": {
               "userInputForlowest": {
                  "fieldName": "Lowest-Value",
                  "description": "Lowest threshold value.",
                  "defaultValue": "0"
               },
               "userInputForhighest": {
                  "fieldName": "Highest-Value",
                  "description": "Highest threshold value.",
                  "defaultValue": "2434"
               },
               "userInputFormeter": {
                  "fieldName": "Meter-ID",
                  "description": "The meter id which will be used to filter data.",
                  "defaultValue": "s2"
               },
               "userInputForemails": {
                  "fieldName": "Email IDs",
                  "description": "Email IDs with comma seprated values",
                  "defaultValue": "prashant@ampcome.com,vishal@ampcome.com"
               }
            }
         },
         {
            "uuid": "current-c",
            "name": "Current-C",
            "description": "This template can be used to measure and send alerts if Current-C is not in threshold.",
            "type": "template",
            "instanceCount": "many",
            "script": "var lowest = myFunction1('${userInputForlowest}');\n\n/**\n* Does some magic on given variable\n* @returns Processed input\n* @param input User given value\n*/\nfunction myFunction1(input) {\n   if(input)\n\treturn input;\n}\n\n\n\n\nvar highest = myFunction2('${userInputForhighest}');\n\n/**\n* Does some magic on given variable\n* @returns Processed input\n* @param input User given value\n*/\nfunction myFunction2(input) {\n   if(input)\n\treturn input;\n}\n\n\n\n\nvar meter = myFunction3('${userInputFormeter}');\n\n/**\n* Does some magic on given variable\n* @returns Processed input\n* @param input User given value\n*/\nfunction myFunction3(input) {\n   if(input)\n\treturn input;\n}\n\n\n\n\nvar emails = myFunction1('${userInputForemails}');\n\n/**\n* Does some magic on given variable\n* @returns Processed input\n* @param input User given value\n*/\nfunction myFunction1(input) {\n   if(input)\n\treturn input;\n}\n\n\n\n\n",
            "templates": [
               {
                  "type": "siddhiApp",
                  "content": "@App:name('current-c') \n@App:description(\"Description of the plan\")\n\n\n@source(type='rabbitmq' , uri='amqp://ampcome:Ampcome1@localhost', routing.key='data', exchange.name='meter_data_fanout_ex', exchange.type='fanout', queue.name='', @map(type='json'))\ndefine stream InputStream(voltage_ab_v double, voltage_bc_v double, voltage_ca_v double, current_a_a double, current_b_a double, current_c_a double, current_avg double, frequency_hz double, meter_id string, active_power_total_kw double, apparent_power_total_kva double, power_factor_total double, device_time long);\n\n@sink(type='email',\n      username ='SMTP_Injection',\n      address ='skycom@ampcome.com',\n      password='1f343d01592931b734e0f65937ff23b7d5074706', \n      subject='Alert From Energy Application for meter: {{meter_id}}',\n      to='${emails}',\n      port = '587',\n      host = 'smtp.sparkpostmail.com',\n      ssl.enable = 'false',\n      auth = 'true',\n      mail.smtp.starttls.enable = 'true',\n      mail.smtp.starttls.required = 'true',\n      @map(type='text', @payload(\"Dear User, The Current_C was not in between of set threshold of [${lowest} and ${highest}] on {{date_time}}. Current_C is {{current_c_a}}. Please note that, the DG meter is indicated as 's1', LT-EB is 's2' and VCB(HT-EB) is s3.\")))\ndefine stream OutputStream(current_c_a double, meter_id string, date_time string);\n\n@info(name='HelloWorldQuery')\nfrom InputStream[meter_id=='${meter}' and (current_c_a < ${lowest}d or current_c_a > ${highest}d)]\nselect current_c_a, meter_id, time:dateFormat(device_time, 'yyyy-MM-dd HH:mm:ss.SSS') as date_time\ninsert into OutputStream;"
               }
            ],
            "properties": {
               "userInputForlowest": {
                  "fieldName": "Lowest-Value",
                  "description": "Lowest threshold value.",
                  "defaultValue": "0"
               },
               "userInputForhighest": {
                  "fieldName": "Highest-Value",
                  "description": "Highest threshold value.",
                  "defaultValue": "2434"
               },
               "userInputFormeter": {
                  "fieldName": "Meter-ID",
                  "description": "The meter id which will be used to filter data.",
                  "defaultValue": "s2"
               },
               "userInputForemails": {
                  "fieldName": "Email IDs",
                  "description": "Email IDs with comma seprated values",
                  "defaultValue": "prashant@ampcome.com,vishal@ampcome.com"
               }
            }
         },
         {
            "uuid": "max-kva",
            "name": "Max-KVA",
            "description": "This template can be used to measure and send alerts if kva goes higher of its set threshold.",
            "type": "template",
            "instanceCount": "many",
            "script": "var meter_name = myFunction1('${userInputFormeter_name}');\n\n/**\n* Does some magic on given variable\n* @returns Processed input\n* @param input User given value\n*/\nfunction myFunction1(input) {\n   if(input)\n\treturn input;\n}\n\n\n\n\nvar highest = myFunction1('${userInputForhighest}');\n\n/**\n* Does some magic on given variable\n* @returns Processed input\n* @param input User given value\n*/\nfunction myFunction1(input) {\n   if(input)\n\treturn input;\n}\n\n\n\n\nvar threshold = myFunction2('${userInputForthreshold}');\n\n/**\n* Does some magic on given variable\n* @returns Processed input\n* @param input User given value\n*/\nfunction myFunction2(input) {\n   if(input)\n\treturn input;\n}\n\n\n\n\nvar meter_id = myFunction3('${userInputFormeter_id}');\n\n/**\n* Does some magic on given variable\n* @returns Processed input\n* @param input User given value\n*/\nfunction myFunction3(input) {\n   if(input)\n\treturn input;\n}\n\n\n\n\nvar emails = myFunction1('${userInputForemails}');\n\n/**\n* Does some magic on given variable\n* @returns Processed input\n* @param input User given value\n*/\nfunction myFunction1(input) {\n   if(input)\n\treturn input;\n}\n\n\nvar mins = myFunction1('${userInputFormins}');\n\n/**\n* Does some magic on given variable\n* @returns Processed input\n* @param input User given value\n*/\nfunction myFunction1(input) {\n   if(input)\n\treturn input;\n}\n\n",
            "templates": [
               {
                  "type": "siddhiApp",
                  "content": "@App:name('max-kva') \n@App:description(\"Max-kva last n minutes data aggregation based on meter ID.\")\n\n\n@source(type='rabbitmq' , uri='amqp://ampcome:Ampcome1@localhost', routing.key='data', exchange.name='meter_data_fanout_ex', exchange.type='fanout', queue.name='', @map(type='json'))\ndefine stream InputStream(voltage_ab_v double, voltage_bc_v double, voltage_ca_v double, current_a_a double, current_b_a double, current_c_a double, current_avg double, frequency_hz double, meter_id string, active_power_total_kw double, apparent_power_total_kva double, power_factor_total double, device_time long);\n\n\ndefine stream holdData(apparent_power_total_kva double, meter_id string, date_time string);\n\n\n@sink(type='email',\n      username ='SMTP_Injection',\n      address ='skycomm@ampcome.com',\n      password='1f343d01592931b734e0f65937ff23b7d5074706', \n      subject='Alert From Energy Application for meter: ${meter_name}',\n      to='${emails}',\n      port = '587',\n      host = 'smtp.sparkpostmail.com',\n      ssl.enable = 'false',\n      auth = 'true',\n      content.type=\"text/html\",\n      mail.smtp.starttls.enable = 'true',\n      mail.smtp.starttls.required = 'true',\n      @map(type='text', @payload(\"<html><head><title></title><link href='https://svc.webspellchecker.net/spellcheck31/lf/scayt3/ckscayt/css/wsc.css' rel='stylesheet' type='text/css'/><link href='https://svc.webspellchecker.net/spellcheck31/lf/scayt3/ckscayt/css/wsc.css' rel='stylesheet' type='text/css'/><link href='https://svc.webspellchecker.net/spellcheck31/lf/scayt3/ckscayt/css/wsc.css' rel='stylesheet' type='text/css'/><link href='https://svc.webspellchecker.net/spellcheck31/lf/scayt3/ckscayt/css/wsc.css' rel='stylesheet' type='text/css'/></head><body aria-readonly='false' style='cursor: auto;'>Dear User,<br/><br/>The following alert has been noted, for Medreich Unit 8, RR No.: NGHT13<table align='left' border='1' cellpadding='1' cellspacing='1' style='width:500px'><tbody><tr><td>Meter</td><td>${meter_name} &nbsp;</td></tr><tr><td>Time</td><td>{{date_time}}</td></tr><tr><td>Apparent Power Total (Average of past ${mins} minutes)</td><td>{{apparent_power_total_kva}}kVA ({{percent_of_threshold}}%)</td></tr><tr><td>Ideal Apparent Power Total</td><td>${threshold}kVA</td></tr><tr><td>Alert setting</td><td>${highest}%</td></tr></tbody></table><br/><br/><br/><br/><br/><br/><br/><br/><strong>Powered by SKYCOMM, Smart Plant analytics.</strong></body></html>\")))\ndefine stream OutputStream(apparent_power_total_kva double, meter_id string, date_time string, percent_of_threshold double);\n\n@info(name='first-query')\nfrom InputStream[meter_id=='${meter_id}']#window.timeBatch(${mins} min)\nselect avg(apparent_power_total_kva) as apparent_power_total_kva, meter_id, time:dateFormat(device_time, 'HH:mm:ss.SSS yyyy-MM-dd') as date_time\ngroup by meter_id\ninsert into holdData;\n\n@info(name='second-query')\nfrom holdData[(apparent_power_total_kva>(${threshold}d*${highest}/100))]\nselect apparent_power_total_kva, meter_id, date_time, (apparent_power_total_kva*100)/${threshold}d as percent_of_threshold\ninsert into OutputStream;\n"
               }
            ],
            "properties": {
               "userInputForhighest": {
                  "fieldName": "Highest-Value",
                  "description": "The lowest value of threshold in percentage. Not needed to add % at end of value.",
                  "defaultValue": "80"
               },
               "userInputForthreshold": {
                  "fieldName": "Threshold-Value",
                  "description": "The threshold value which will be base of all calculations.",
                  "defaultValue": "2434"
               },
               "userInputFormeter_id": {
                  "fieldName": "Meter-ID",
                  "description": "The meter id which will be used to filter data.",
                  "defaultValue": "s2"
               },
               "userInputForemails": {
                  "fieldName": "Email IDs",
                  "description": "Email IDs with comma seprated values",
                  "defaultValue": "prashant@ampcome.com,vishal@ampcome.com"
               },
               "userInputFormins": {
                  "fieldName": "Minutes for Aggregation",
                  "description": "Minutes like 1,2,3...",
                  "defaultValue": "5"
               },
               "userInputFormeter_name": {
                  "fieldName": "Meter-Name",
                  "description": "Name of Meter(eg: LT-EB, VCB, DG)",
                  "defaultValue": "DG"
               }
            }
         },
         {
            "uuid": "pf-lowest",
            "name": "PF-Lowest",
            "description": "This template can be used to measure and send alerts if PF-Lowest goes below of its set threshold.",
            "type": "template",
            "instanceCount": "many",
            "script": "var meter_name = myFunction1('${userInputFormeter_name}');\n\n/**\n* Does some magic on given variable\n* @returns Processed input\n* @param input User given value\n*/\nfunction myFunction1(input) {\n   if(input)\n\treturn input;\n}\n\n\n\nvar lowest = myFunction1('${userInputForlowest}');\n\n/**\n* Does some magic on given variable\n* @returns Processed input\n* @param input User given value\n*/\nfunction myFunction1(input) {\n   if(input)\n\treturn input;\n}\n\n\n\n\nvar threshold = myFunction2('${userInputForthreshold}');\n\n/**\n* Does some magic on given variable\n* @returns Processed input\n* @param input User given value\n*/\nfunction myFunction2(input) {\n   if(input)\n\treturn input;\n}\n\n\n\n\nvar meter_id = myFunction3('${userInputFormeter_id}');\n\n/**\n* Does some magic on given variable\n* @returns Processed input\n* @param input User given value\n*/\nfunction myFunction3(input) {\n   if(input)\n\treturn input;\n}\n\n\n\n\nvar emails = myFunction1('${userInputForemails}');\n\n/**\n* Does some magic on given variable\n* @returns Processed input\n* @param input User given value\n*/\nfunction myFunction1(input) {\n   if(input)\n\treturn input;\n}\n\n\n\nvar mins = myFunction1('${userInputFormins}');\n\n/**\n* Does some magic on given variable\n* @returns Processed input\n* @param input User given value\n*/\nfunction myFunction1(input) {\n   if(input)\n\treturn input;\n}\n",
            "templates": [
               {
                  "type": "siddhiApp",
                  "content": "@App:name('pf-lowest') \n@App:description(\"PF-Lowest last n minutes data aggregation based on meter ID.\")\n\n\n@source(type='rabbitmq' , uri='amqp://ampcome:Ampcome1@localhost', routing.key='data', exchange.name='meter_data_fanout_ex', exchange.type='fanout', queue.name='', @map(type='json'))\ndefine stream InputStream(voltage_ab_v double, voltage_bc_v double, voltage_ca_v double, current_a_a double, current_b_a double, current_c_a double, current_avg double, frequency_hz double, meter_id string, active_power_total_kw double, apparent_power_total_kva double, power_factor_total double, device_time long);\n\n\ndefine stream holdData(power_factor_total double, meter_id string, date_time string);\n\n\n@sink(type='email',\n      username ='SMTP_Injection',\n      address ='skycomm@ampcome.com',\n      password='1f343d01592931b734e0f65937ff23b7d5074706', \n      subject='Alert From Energy Application for meter: ${meter_name}',\n      to='${emails}',\n      port = '587',\n      host = 'smtp.sparkpostmail.com',\n      ssl.enable = 'false',\n      auth = 'true',\n      content.type=\"text/html\",\n      mail.smtp.starttls.enable = 'true',\n      mail.smtp.starttls.required = 'true',\n      @map(type='text', @payload(\"<html><head><title></title><link href='https://svc.webspellchecker.net/spellcheck31/lf/scayt3/ckscayt/css/wsc.css' rel='stylesheet' type='text/css'/><link href='https://svc.webspellchecker.net/spellcheck31/lf/scayt3/ckscayt/css/wsc.css' rel='stylesheet' type='text/css'/><link href='https://svc.webspellchecker.net/spellcheck31/lf/scayt3/ckscayt/css/wsc.css' rel='stylesheet' type='text/css'/><link href='https://svc.webspellchecker.net/spellcheck31/lf/scayt3/ckscayt/css/wsc.css' rel='stylesheet' type='text/css'/></head><body aria-readonly='false' style='cursor: auto;'>Dear User,<br/><br/>The following alert has been noted, for Medreich Unit 8, RR No.: NGHT13<table align='left' border='1' cellpadding='1' cellspacing='1' style='width:500px'><tbody><tr><td>Meter</td><td>${meter_name} &nbsp;</td></tr><tr><td>Time</td><td>{{date_time}}</td></tr><tr><td>Power Factor (Average of past ${mins} minutes)</td><td>{{power_factor_total}} ({{percent_of_threshold}}%)</td></tr><tr><td>Ideal Power Factor</td><td>${threshold}</td></tr><tr><td>Alert setting</td><td>${lowest}%</td></tr></tbody></table><br/><br/><br/><br/><br/><br/><br/><br/><strong>Powered by SKYCOMM, Smart Plant analytics.</strong></body></html>\")))\ndefine stream OutputStream(power_factor_total double, meter_id string, date_time string, percent_of_threshold double);\n\n@info(name='first-query')\nfrom InputStream[meter_id=='${meter_id}']#window.timeBatch(${mins} min)\nselect avg(power_factor_total) as power_factor_total, meter_id, time:dateFormat(device_time, 'HH:mm:ss.SSS yyyy-MM-dd') as date_time\ngroup by meter_id\ninsert into holdData;\n\n@info(name='second-query')\nfrom holdData[(power_factor_total<(${threshold}-(${threshold}d*${lowest}/100)))]\nselect power_factor_total, meter_id, date_time, (power_factor_total*100)/${threshold}d as percent_of_threshold\ninsert into OutputStream;\n"
               }
            ],
            "properties": {
               "userInputForlowest": {
                  "fieldName": "Lowest-Value",
                  "description": "The lowest value of threshold in percentage. Not needed to add % at end of value.",
                  "defaultValue": "5"
               },
               "userInputForthreshold": {
                  "fieldName": "Threshold-Value",
                  "description": "The threshold value which will be base of all calculations.",
                  "defaultValue": "415"
               },
               "userInputFormeter_id": {
                  "fieldName": "Meter-ID",
                  "description": "The meter id which will be used to filter data.",
                  "defaultValue": "s2"
               },
               "userInputForemails": {
                  "fieldName": "Email IDs",
                  "description": "Email IDs with comma seprated values",
                  "defaultValue": "prashant@ampcome.com,vishal@ampcome.com"
               },
               "userInputFormins": {
                  "fieldName": "Minutes for Aggregation",
                  "description": "Minutes like 1,2,3...",
                  "defaultValue": "5"
               },
               "userInputFormeter_name": {
                  "fieldName": "Meter-Name",
                  "description": "Name of Meter(eg: LT-EB, VCB, DG)",
                  "defaultValue": "DG"
               }
            }
         },
         {
            "uuid": "pf-highest",
            "name": "PF-Highest",
            "description": "This template can be used to measure and send alerts if PF-Average crosses its set threshold.",
            "type": "template",
            "instanceCount": "many",
            "script": "var meter_name = myFunction1('${userInputFormeter_name}');\n\n/**\n* Does some magic on given variable\n* @returns Processed input\n* @param input User given value\n*/\nfunction myFunction1(input) {\n   if(input)\n\treturn input;\n}\n\n\n\nvar highest = myFunction1('${userInputForhighest}');\n\n/**\n* Does some magic on given variable\n* @returns Processed input\n* @param input User given value\n*/\nfunction myFunction1(input) {\n   if(input)\n\treturn input;\n}\n\n\n\n\nvar threshold = myFunction2('${userInputForthreshold}');\n\n/**\n* Does some magic on given variable\n* @returns Processed input\n* @param input User given value\n*/\nfunction myFunction2(input) {\n   if(input)\n\treturn input;\n}\n\n\n\n\nvar meter_id = myFunction3('${userInputFormeter_id}');\n\n/**\n* Does some magic on given variable\n* @returns Processed input\n* @param input User given value\n*/\nfunction myFunction3(input) {\n   if(input)\n\treturn input;\n}\n\n\n\n\nvar emails = myFunction1('${userInputForemails}');\n\n/**\n* Does some magic on given variable\n* @returns Processed input\n* @param input User given value\n*/\nfunction myFunction1(input) {\n   if(input)\n\treturn input;\n}\n\n\nvar mins = myFunction1('${userInputFormins}');\n\n/**\n* Does some magic on given variable\n* @returns Processed input\n* @param input User given value\n*/\nfunction myFunction1(input) {\n   if(input)\n\treturn input;\n}\n\n",
            "templates": [
               {
                  "type": "siddhiApp",
                  "content": "@App:name('pf-highest') \n@App:description(\"PF-Highest last n minutes data aggregation based on meter ID.\")\n\n\n@source(type='rabbitmq' , uri='amqp://ampcome:Ampcome1@localhost', routing.key='data', exchange.name='meter_data_fanout_ex', exchange.type='fanout', queue.name='', @map(type='json'))\ndefine stream InputStream(voltage_ab_v double, voltage_bc_v double, voltage_ca_v double, current_a_a double, current_b_a double, current_c_a double, current_avg double, frequency_hz double, meter_id string, active_power_total_kw double, apparent_power_total_kva double, power_factor_total double, device_time long);\n\n\ndefine stream holdData(power_factor_total double, meter_id string, date_time string);\n\n\n@sink(type='email',\n      username ='SMTP_Injection',\n      address ='skycomm@ampcome.com',\n      password='1f343d01592931b734e0f65937ff23b7d5074706', \n      subject='Alert From Energy Application for meter: ${meter_name}',\n      to='${emails}',\n      port = '587',\n      host = 'smtp.sparkpostmail.com',\n      ssl.enable = 'false',\n      auth = 'true',\n      content.type=\"text/html\",\n      mail.smtp.starttls.enable = 'true',\n      mail.smtp.starttls.required = 'true',\n      @map(type='text', @payload(\"<html><head><title></title><link href='https://svc.webspellchecker.net/spellcheck31/lf/scayt3/ckscayt/css/wsc.css' rel='stylesheet' type='text/css'/><link href='https://svc.webspellchecker.net/spellcheck31/lf/scayt3/ckscayt/css/wsc.css' rel='stylesheet' type='text/css'/><link href='https://svc.webspellchecker.net/spellcheck31/lf/scayt3/ckscayt/css/wsc.css' rel='stylesheet' type='text/css'/><link href='https://svc.webspellchecker.net/spellcheck31/lf/scayt3/ckscayt/css/wsc.css' rel='stylesheet' type='text/css'/></head><body aria-readonly='false' style='cursor: auto;'>Dear User,<br/><br/>The following alert has been noted, for Medreich Unit 8, RR No.: NGHT13<table align='left' border='1' cellpadding='1' cellspacing='1' style='width:500px'><tbody><tr><td>Meter</td><td>${meter_name} &nbsp;</td></tr><tr><td>Time</td><td>{{date_time}}</td></tr><tr><td>Power Factor (Average of past ${mins} minutes)</td><td>{{power_factor_total}} ({{percent_of_threshold}}%)</td></tr><tr><td>Ideal Power Factor</td><td>${threshold}</td></tr><tr><td>Alert setting</td><td>${highest}%</td></tr></tbody></table><br/><br/><br/><br/><br/><br/><br/><br/><strong>Powered by SKYCOMM, Smart Plant analytics.</strong></body></html>\")))\ndefine stream OutputStream(power_factor_total double, meter_id string, date_time string, percent_of_threshold double);\n\n@info(name='first-query')\nfrom InputStream[meter_id=='${meter_id}']#window.timeBatch(${mins} min)\nselect avg(power_factor_total) as power_factor_total, meter_id, time:dateFormat(device_time, 'HH:mm:ss.SSS yyyy-MM-dd') as date_time\ngroup by meter_id\ninsert into holdData;\n\n@info(name='second-query')\nfrom holdData[(power_factor_total>(${threshold}+(${threshold}d*${highest}/100)))]\nselect power_factor_total, meter_id, date_time, (power_factor_total*100)/${threshold}d as percent_of_threshold\ninsert into OutputStream;\n"
               }
            ],
            "properties": {
               "userInputForhighest": {
                  "fieldName": "Highest-Value",
                  "description": "The highest value of threshold in percentage. Not needed to add % at end of value.",
                  "defaultValue": "5"
               },
               "userInputForthreshold": {
                  "fieldName": "Threshold-Value",
                  "description": "The threshold value which will be base of all calculations.",
                  "defaultValue": "415"
               },
               "userInputFormeter_id": {
                  "fieldName": "Meter-ID",
                  "description": "The meter id which will be used to filter data.",
                  "defaultValue": "s2"
               },
               "userInputForemails": {
                  "fieldName": "Email IDs",
                  "description": "Email IDs with comma seprated values",
                  "defaultValue": "prashant@ampcome.com,vishal@ampcome.com"
               },
               "userInputFormins": {
                  "fieldName": "Minutes for Aggregation",
                  "description": "Minutes like 1,2,3...",
                  "defaultValue": "5"
               },
               "userInputFormeter_name": {
                  "fieldName": "Meter-Name",
                  "description": "Name of Meter(eg: LT-EB, VCB, DG)",
                  "defaultValue": "DG"
               }
            }
         }
      ]
   }
}